[
    {
        "index":0,
        "Left":37,
        "Right":39,
        "Up":38,
        "Down":40,
        "button1":4096,
        "button2":8192,
        "button3":32768,
        "button4":16384,
        "button5":16,
        "key1":190,
        "key2":191,
        "key3": 0,
        "key4":0,
        "key5":13
    },
    {
        "index":1,
        "Left":65,
        "Right":68,
        "Up":87,
        "Down":83,
        "button1":4096,
        "button2":8192,
        "button3":32768,
        "button4":16384,
        "button5":16,
        "key1":49,
        "key2":50,
        "key3":0,
        "key4":0,
        "key5":0
    },
    {
        "index":2,
        "Left":74,
        "Right":76,
        "Up":73,
        "Down":75,
        "button1":4096,
        "button2":8192,
        "button3":32768,
        "button4":16384,
        "button5":16,
        "key1":71,
        "key2":72,
        "key3":0,
        "key4":0,
        "key5":0
    },
    {
        "index":3,
        "Left":100,
        "Right":102,
        "Up":104,
        "Down":101,
        "button1":4096,
        "button2":8192,
        "button3":32768,
        "button4":16384,
        "button5":16,
        "key1":97,
        "key2":98,
        "key3":0,
        "key4":0,
        "key5":0
    }
    
]